"Time (s)","Thrust (N)"
0.024,0.3704
0.066,0.8746
0.138,4.5044
0.246,6.6207
0.426,6.7351
1.218,7.3232
2.082,7.423
3.306,7.183
5.322,6.8385
6.978,6.7193
8.632,6.5512
10.144,6.4792
12.088,6.4254
15.472,6.3333
17.632,6.1305
19.108,6.0385
19.511,5.9607
19.804,4.4295
19.867,1.6687
19.937,0.3341
19.964,0
