"Time (s)","Thrust (N)"
0.01,16.81
0.03,22.34
0.11,22.23
0.26,21.49
0.37,20
0.47,20.21
0.67,18.09
0.99,15.74
1.31,13.4
1.81,10.85
2.49,10.21
3.13,8.94
3.6,8.83
4.11,8.62
4.95,8.62
5.45,8.62
5.58,8.51
5.88,8.72
6.22,8.51
6.46,8.51
6.6,7.77
6.71,7.02
6.79,5.64
6.91,3.83
6.95,2.23
7,0.96
7.05,0
